[
  [
    "category",
    "model",
    "",
    "Modeling ETIs",
    "",
    "",
    ""
  ],
  [
    "category",
    "mechanism",
    "",
    "Mechanisms of ETI",
    "What are the mechanisms of ETIs ? We are looking for causal explainations of the phenomenon.",
    "That's a very interesting category. -- Guilhem",
    "You think so too ? -- Guilhem"
  ],
  [
    "category",
    "description",
    "",
    "Description and Concepts",
    "",
    "",
    ""
  ],
  [
    "category",
    "kind",
    "",
    "Kinds of ETIs",
    "",
    "",
    ""
  ],
  [
    "category",
    "view",
    "",
    "Viewpoints",
    "",
    "",
    ""
  ],
  [
    "category",
    "individuality",
    "",
    "Individuality",
    "The concept of Individuality",
    "",
    ""
  ],
  [
    "tag",
    "progress",
    "description",
    "Progress of an ETI",
    "How do we describe the progress of an ETI ? When does it start ? When does it end ? Is this one \"In progress\", \"finished\" ?",
    "",
    ""
  ],
  [
    "tag",
    "conditions",
    "description",
    "Conditions for an ETI",
    "Necessary and Sufficient Conditions for ETIs, constraints",
    "",
    ""
  ],
  [
    "tag",
    "selection",
    "mechanism",
    "Natural Selection",
    "The role of Natural selection in ETIs",
    "",
    ""
  ],
  [
    "tag",
    "quantification",
    "description",
    "Quantifiy ETI",
    "How to quantify ETI",
    "",
    ""
  ],
  [
    "tag",
    "initiation",
    "mechanism",
    "Initiation",
    "How ETIs get started",
    "",
    ""
  ],
  [
    "tag",
    "maintenance",
    "mechanism",
    "Maintenance",
    "Maintenance of the product of an ETI",
    "",
    ""
  ],
  [
    "tag",
    "multilevel",
    "view",
    "Multilevel view",
    "",
    "",
    ""
  ],
  [
    "tag",
    "gametheory",
    "view",
    "Game Theory view",
    "costs, benefits, altruism, bet hedging",
    "",
    ""
  ],
  [
    "tag",
    "popstructure",
    "description",
    "Population Structure",
    "",
    "",
    ""
  ],
  [
    "tag",
    "ecology",
    "view",
    "Ecological view",
    "Niche, communities, ecological interactions",
    "",
    ""
  ],
  [
    "tag",
    "development",
    "view",
    "Evo-Devo view",
    "Development, life-cycle, plasticity...",
    "",
    ""
  ],
  [
    "tag",
    "classification",
    "description",
    "Definition",
    "The classification and description of ETIs",
    "",
    ""
  ],
  [
    "tag",
    "scaffolding",
    "mechanism",
    "Scaffolding",
    "The Scaffolding of ETIs by transient structures",
    "",
    ""
  ],
  [
    "tag",
    "darwinian",
    "description",
    "Darwinian properties",
    "",
    "",
    ""
  ],
  [
    "tag",
    "neutral",
    "mechanism",
    "Neutral processes",
    "chance",
    "",
    ""
  ],
  [
    "tag",
    "emergence",
    "description",
    "Emergence",
    "Properties characteristics of higher levels",
    "",
    ""
  ],
  [
    "tag",
    "culture",
    "kind",
    "Cultural evolution",
    "",
    "",
    ""
  ],
  [
    "tag",
    "multicellularity",
    "kind",
    "Multicellularity",
    "The Uni to multicellular ETI",
    "",
    ""
  ],
  [
    "question",
    "model",
    "mechanism",
    "We should develop a very basic conceptual (not verbal) model that can be analyzed qualitatively and that is convincing to many to highlights the basic issue of these transitions",
    "",
    "",
    ""
  ],
  [
    "question",
    "model",
    "progress",
    "How do we know when a new level of evolutionary individuality has taken effect?",
    "",
    "",
    ""
  ],
  [
    "question",
    "model",
    "conditions",
    "Can we come up with a single set of sufficient conditions for a true evolutionary transition of individuality? ",
    "If so, can we verify them by defining an individual-based computational model that obeys these conditions and indeed shows a transition from individuals to emergent collectives that qualify as individuals?",
    "",
    ""
  ],
  [
    "question",
    "model",
    "selection",
    "Can natural selection explain ETIs?",
    "",
    "",
    ""
  ],
  [
    "question",
    "model",
    "quantification,progress",
    "What is maximised during an ETI?",
    "",
    "",
    ""
  ],
  [
    "question",
    "mechanism",
    "maintenance,initiation,popstructure,gametheory",
    "Which of the following could have been the cause of the origin and maintenance of stringent bottlenecks, a stabilizing feature of evolutionary transitions, altruism or bet hedging?",
    "",
    "",
    ""
  ],
  [
    "question",
    "mechanism",
    "selection,multilevel,gametheory",
    "Which are the particular particle processes and mechanisms that occur and combined with multilevel selection promote beneficial collective outcomes?",
    "",
    "",
    ""
  ],
  [
    "question",
    "mechanism",
    "ecology,conditions",
    "What ecological conditions give rise to increased individuality?",
    "",
    "",
    ""
  ],
  [
    "question",
    "mechanism",
    "multicellularity,development,initiation",
    "What did the earliest forms of multicellular development look like?",
    "",
    "",
    ""
  ],
  [
    "question",
    "mechanism",
    "individuality, mechanism",
    "What are the key ingredients needed for a transition in individuality to proceed?",
    "",
    "",
    ""
  ],
  [
    "question",
    "mechanism",
    "classification,individuality",
    "To what extent can knowledge about fraternal transitions teach us about egalitarian transitions (and vice versa)?",
    "",
    "",
    ""
  ],
  [
    "question",
    "mechanism",
    "scaffolding, development",
    "How to model ecological scaffolding developmentally, as processes with their own developmental and evolutionary dynamics.",
    "",
    "",
    ""
  ],
  [
    "question",
    "mechanism",
    "classification, development, culture",
    "Languages and brains evolve through plasticity. Does a similar process exist in ETIs?",
    "",
    "",
    ""
  ],
  [
    "question",
    "mechanism",
    "development, darwinian, initiation",
    "is specialization (as in cellular differentiation) related to heritability of phenotypes? which preceded which?",
    "",
    "",
    ""
  ],
  [
    "question",
    "mechanism",
    "individuality, development, selection, multicellularity, neutral",
    "Is a change in the level of individuality contingent on finding the mechanism responsible for it?",
    "For instance in germen soma differentiation, one requirement is that a genotype makes (at least) two very different types of cells. This means that its evolution is contingent on finding a gene network that uses noise in gene expression (or some other source of randomness) to reach different stable states. This is likely counterselected in unicellulars, making the transition difficult or rare even when selection may favour it.",
    "",
    ""
  ],
  [
    "question",
    "mechanism",
    "darwinian, neutral",
    "How might variation and inheritance be balanced to facilitate evolutionary transitions?",
    "",
    "",
    ""
  ],
  [
    "question",
    "mechanism",
    "initiation",
    "How important is the initial distribution of protocell compositions in the chromosomes evolution?",
    "",
    "",
    ""
  ],
  [
    "question",
    "mechanism",
    "multicellularity, emergence",
    "How does a multicellular (multi-individual) organisation emerge from the behaviour of individual cells (individiduals)?",
    "",
    "",
    ""
  ],
  [
    "question",
    "mechanism",
    "development, multicellularity",
    "How do primitive developmental systems give rise to multicellular life cycles?",
    "",
    "",
    ""
  ],
  [
    "question",
    "mechanism",
    "emergence",
    "How do novel traits emerge during/after the transition in individuality?",
    "",
    "",
    ""
  ],
  [
    "question",
    "mechanism",
    "mechanism, development",
    "How do existing ecological mechanisms get co-opted in the development of the novel level of individuality?\\",
    "",
    "",
    ""
  ],
  [
    "question",
    "mechanism",
    "emergence, darwinian",
    "How do Darwinian properties emerge at the group-level? Especially a means of collective reproduction",
    "",
    "",
    ""
  ],
  [
    "question",
    "mechanism",
    "development, conditions",
    "how are transitions integrated into life-cycles? how are they shaped by constraints?",
    "",
    "",
    ""
  ],
  [
    "question",
    "mechanism",
    "maintenance, neutral, selection",
    "How are ETIs stabilized against reversion (e.g., evolutionary reversals from multicellularity to unicellularity)? ",
    "What are the mechanisms? Is the entrenchment of ETIs largely driven by adaptation or by neutral evolution?",
    "",
    ""
  ],
  [
    "question",
    "mechanism",
    "emergence, darwinian, selection",
    "How are emergent properties related to multi-level selection?",
    "",
    "",
    ""
  ],
  [
    "question",
    "mechanism",
    "scaffolding, maintenance",
    "Endogenization of externally imposed Darwinian Properties",
    "",
    "",
    ""
  ],
  [
    "question",
    "mechanism",
    "multicellularity, mechanism, initiation",
    "Did (asymmetric) damage distribution evolve in cell lineages before the transition to multicellularity?",
    "",
    "",
    ""
  ],
  [
    "question",
    "mechanism",
    "ecology, individuality, conditions",
    "Can multi-genome systems (e.g. microbial communities) become stable evolutionary individuals and if so under what conditions?",
    "",
    "",
    ""
  ],
  [
    "question",
    "mechanism",
    "classification, conditions",
    "Are there general mechanisms that underlie the different kinds of evolutionary transitions in individuality?",
    "",
    "",
    ""
  ],
  [
    "question",
    "mechanism",
    "maintenance, scaffolding",
    "What part is played by the internalisation of \"environment given\" individuality (~ ecological scaffolding) in the rise of the levels of individuality?",
    "",
    "",
    ""
  ],
  [
    "question",
    "mechanism",
    "popstructure",
    "Is spatial structuration the major driver of major transitions?",
    "",
    "",
    ""
  ],
  [
    "question",
    "mechanism",
    "selection,emergence",
    "Is second order selection driving the evolution of the efficiency of selection at emerging levels of individuality ? ",
    "E.g. is there effective selection for a reduced efficiency of selection at lower level, such as selection FOR meiosis BECAUSE it reduced the scope of selfish genetic elements ? I think this relates to \"evolutionary individuation\" as defined by Ellen Clark.",
    "",
    ""
  ],
  [
    "question",
    "mechanism",
    "selection, gametheory",
    "Are there (still) good reasons for a group selection / kin selection debate? ",
    "And a related question: what are the pros and cons of gene centric versus multilevel selection perspectives?",
    "",
    ""
  ],
  [
    "question",
    "individuality",
    "ecology",
    "Within the individuality space, what is the scope of multispecies individuals?",
    "",
    "",
    ""
  ],
  [
    "question",
    "individuality",
    "selection",
    "What would a theory of evolution look like that did not start with self-interested individuals?",
    "(and could that, somewhat ironically, better explain the origination of new levels of individuality?)",
    "",
    ""
  ],
  [
    "question",
    "individuality",
    "classification",
    "What is an individual? Can there be a single answer, or is the answer always context-dependent?",
    "If latter, what are the necessary criteria, common across all contexts, that allow us to define an \"individual\" in ETIs?",
    "",
    ""
  ],
  [
    "question",
    "individuality",
    "progress,maintenance",
    "What evolutionary consequences result from transitions in individuality (i.e. advantages versus disadvantages)?",
    "",
    "",
    ""
  ],
  [
    "question",
    "individuality",
    "classification",
    "Ontologically speaking, is there such a thing as individuality? ",
    "",
    "",
    ""
  ],
  [
    "question",
    "individuality",
    "culture",
    "Does human subjectivity (such as the politics of emotions) have an influence over our perception of individuality?",
    "",
    "",
    ""
  ],
  [
    "question",
    "individuality",
    "emergence,quantification,multilevel",
    "Micro-macro. Complexity across scales. Emergence.",
    "",
    "",
    ""
  ],
  [
    "question",
    "individuality",
    "classification",
    "I am interested on learning how evolutionary transitions in individuality is viewed from the point of view of philosophers.",
    "",
    "",
    ""
  ],
  [
    "question",
    "individuality",
    "selection,multilevel",
    "How does the target of selection shifts from the individual to the group?",
    "",
    "",
    ""
  ],
  [
    "question",
    "individuality",
    "multilevel",
    "How does evolution occur at multiple levels of organisation, i.e. the level of the individuals and that of the group?",
    "",
    "",
    ""
  ],
  [
    "question",
    "individuality",
    "quantification, progress",
    "How do we define transitions in individuality (i.e. what are the hallmarks)?",
    "",
    "",
    ""
  ],
  [
    "question",
    "individuality",
    "emergence,development",
    "what makes an individual's fitness higher when it progressively delegates parts of its individuality to a collective?",
    "In other words, ETIs are so far poorly explained in terms of bottom-up selection, without pre-supposing the higher-level evolutionary unit.  There are already many hypotheses as to why a higher-level unit might be fitter than the sum of its parts, but not regarding why lower-level units would be fitter when delegating their individualities (e.g. by coordinating their developments, by synchronizing their cycles, etc.).",
    "",
    ""
  ],
  [
    "question",
    "individuality",
    "darwinian,ecology,initiation",
    "Can a system composed of Darwinian individuals evolve through non-Darwinian means?",
    "(e.g. can ecosystems compete with ecosystems, even if they are technically not individuals)",
    "",
    ""
  ],
  [
    "question",
    "individuality",
    "individuality,emergence",
    "Discuss the following quote: \"It is impossible to explain the *origination* of a self using its own self-interest, and any new self has no evolutionary significance unless it opposes self-interest of existing selves. Therefore any attempt to explain ETIs as adaptations under natural selection is misguided\". ",
    "",
    "",
    ""
  ],
  [
    "question",
    "individuality",
    "selection, darwinian",
    "Is individuality required for evolution by natural selection to take place",
    "",
    "",
    ""
  ],
  [
    "question",
    "individuality",
    "culture",
    "Is cultural evolution the manifestation of a new level of individuality?",
    "",
    "",
    ""
  ],
  [
    "question",
    "individuality",
    "selection",
    "How discontinuous is the distribution of the efficiency of selection at different level? ",
    "Is this distribution itself subject to adaptive evolution?",
    "",
    ""
  ],
  [
    "question",
    "individuality",
    "classification,initiation",
    "How did individuality evolve in the first place?",
    "",
    "",
    ""
  ],
  [
    "question",
    "mechanism",
    "gametheory",
    "How are cooperation and conflict managed during ETIs?",
    "Mechanisms of Cooperation and Conflict Resolution:",
    "",
    ""
  ],
  [
    "question",
    "mechanism",
    "development",
    "What role does phenotypic plasticity play in facilitating ETIs?",
    "Role of Phenotypic Plasticity: What role does phenotypic plasticity play in facilitating ETIs?",
    "",
    ""
  ],
  [
    "question",
    "mechanism",
    "progress",
    "What are the genomic changes associated with ETIs?",
    "Genomic Changes",
    "",
    ""
  ],
  [
    "question",
    "mechanism",
    "maintenance",
    "Are ETIs reversible?",
    "Reversibility of ETIs: ",
    "",
    ""
  ],
  [
    "question",
    "mechanism",
    "conditions",
    "Can we predict when and where ETIs will occur based on certain preconditions or triggers?",
    "Predictability of ETIs:",
    "",
    ""
  ],
  [
    "question",
    "model",
    "development,scaffolding,selection",
    "Understanding and modeling inheritance and developmental dynamics of environments in additiion to the roles of environments as generators of forces of natural selection.",
    "",
    "",
    ""
  ],
  [
    "question",
    "individuality",
    "foo",
    "Is there a unique concept of an ETI?",
    "",
    "",
    ""
  ],
  [
    "question",
    "individuality",
    "foo",
    "What criterion should we use for the emergence of a new level of individuality?",
    "",
    "",
    ""
  ],
  [
    "question",
    "individuality",
    "foo",
    "How does the traditional unit-of-selection debate (e.g. kin vs. multilevel selection, MLS1/MLS2) articulates with the questions regarding the nature of ETIs?",
    "",
    "",
    ""
  ],
  [
    "question",
    "individuality",
    "foo",
    "How should we conceive the part/whole relation in an ETI?",
    "",
    "",
    ""
  ],
  [
    "question",
    "individuality",
    "foo",
    "Can we come up with a single set of sufficient conditions for a true evolutionary transition of individuality?",
    "",
    "",
    ""
  ],
  [
    "question",
    "individuality",
    "foo",
    "If so, can we verify them by defining an individual-based computational model that obeys these conditions and indeed shows a transition from individuals to emergent collectives that qualify as individuals?",
    "",
    "",
    ""
  ],
  [
    "question",
    "individuality",
    "foo",
    "(How) did cellular ageing change during the transition to multicellularity? Did (asymmetric) damage distribution evolve in cell lineages before the transition to multicellularity?",
    "",
    "",
    ""
  ],
  [
    "tag",
    "foo",
    "foo",
    "unsorted yet",
    "",
    "",
    ""
  ]
]